Assignment 7. Writing Functions
…
eight(titanic)

## [1] "There is no missing value."
## [1] "There is no missing value."
## [1] "There is no missing value."
## [1] "There is no missing value."
## [1] "There is no missing value."
## [1] "There is no missing value."
## [1] "There is no missing value."
## [1] "There is no missing value."
## [1] "There is no missing value."

## # A tibble: 891 x 12
##    PassengerId Survived Pclass Name  Sex     Age SibSp Parch Ticket  Fare
##          <dbl> <chr>    <chr>  <chr> <chr> <dbl> <dbl> <dbl> <chr>  <dbl>
##  1           1 0        3      Brau~ male   22       1     0 A/5 2~  7.25
##  2           2 1        1      Cumi~ fema~  38       1     0 PC 17~ 71.3 
##  3           3 1        3      Heik~ fema~  26       0     0 STON/~  7.92
##  4           4 1        1      Futr~ fema~  35       1     0 113803 53.1 
##  5           5 0        3      Alle~ male   35       0     0 373450  8.05
##  6           6 0        3      Mora~ male   29.7     0     0 330877  8.46
##  7           7 0        1      McCa~ male   54       0     0 17463  51.9 
##  8           8 0        3      Pals~ male    2       3     1 349909 21.1 
##  9           9 1        3      John~ fema~  27       0     2 347742 11.1 
## 10          10 1        2      Nass~ fema~  14       1     0 237736 30.1 
## # ... with 881 more rows, and 2 more variables: Cabin <chr>,
## #   Embarked <chr>
…
