Math421_Assignment8
…
## Warning in summary.lm(lm(d1[[j]] ~ d1[[i]], d1)): essentially perfect fit:
## summary may be unreliable

## Warning in summary.lm(lm(d1[[j]] ~ d1[[i]], d1)): essentially perfect fit:
## summary may be unreliable

## Warning in summary.lm(lm(d1[[j]] ~ d1[[i]], d1)): essentially perfect fit:
## summary may be unreliable

## Warning in summary.lm(lm(d1[[j]] ~ d1[[i]], d1)): essentially perfect fit:
## summary may be unreliable

## # A tibble: 25 x 3
##    x1          x2                r
##    <chr>       <chr>         <dbl>
##  1 PassengerId PassengerId 1      
##  2 PassengerId Age         0.00136
##  3 PassengerId SibSp       0.00331
##  4 PassengerId Parch       0      
##  5 PassengerId Fare        0.00016
##  6 Age         PassengerId 0.00136
##  7 Age         Age         1      
##  8 Age         SibSp       0.0950 
##  9 Age         Parch       0.0358 
## 10 Age         Fare        0.00923
## # ... with 15 more rows
